{
"name": "gajim"
, "path": "/usr/bin/gajim"
, "paths": [
	"/usr/bin/gajim-history-manager"
	, "/usr/bin/gajim-remote"
]
, "xserver": {
	"enabled": true
	, "enable_tray": false
	, "tray_icon":"/usr/share/icons/gnome-colors-common/scalable/apps/gajim.svg"
	, "enable_notifications": true
}
, "networking":{
	"type":"empty"
	, "sockets": [
		{"type":"client", "proto":"tcp", "port":9050}
	]
}
, "whitelist": [
	{"path":"/run/user/${UID}/keyring/control"}
	, {"path":"${HOME}/.local/share/gajim", "can_create":true}
	, {"path":"${HOME}/.cache/gajim", "can_create":true}
	, {"path":"${HOME}/.config/gajim", "can_create":true}
	, {"path":"${HOME}/.local/share/keyrings", "ignore":true}
	, {"path":"${HOME}/Downloads/Gajim", "target":"${HOME}/Downloads", "can_create":true, "force":true}
]
, "blacklist": [
]
, "environment": [
	{"name":"GNOME_KEYRING_SOCKET", "value":"/run/user/1000/keyring/control"}
	, {"name":"GNOME_KEYRING_PID", "value":"6"}
]
, "seccomp": {
	"mode":"blacklist"
	, "enforce": true
}
}
